…
```r
cchecks::cch_history("2020-04-01")
```
```r
# opening file input connection.
```
```r
 Found 500 records... Found 1000 records... Found 1500 records... Found 2000 records... Found 2500 records... Found 3000 records... Found 3500 records... Found 4000 records... Found 4500 records... Found 5000 records... Found 5500 records... Found 6000 records... Found 6500 records... Found 7000 records... Found 7500 records... Found 8000 records... Found 8500 records... Found 9000 records... Found 9500 records... Found 10000 records... Found 10500 records... Found 11000 records... Found 11500 records... Found 12000 records... Found 12500 records... Found 13000 records... Found 13500 records... Found 14000 records... Found 14500 records... Found 15000 records... Found 15500 records... Found 16000 records... Found 16327 records... Imported 16327 records. Simplifying...

```
```r
# closing file input connection.
```
```r
# A tibble: 16,327 x 5
   package  summary            checks              check_details             date_updated 
   <chr>    <chr>              <chr>               <chr>                     <chr>        
 1 localIV  "{\"any\":false,\… "[{\"flavor\":\"r-… "null"                    2020-04-01 1…
 2 di       "{\"any\":false,\… "[{\"flavor\":\"r-… "null"                    2020-04-01 1…
 3 GAR      "{\"any\":true,\"… "[{\"flavor\":\"r-… "{\"version\":\"1.1\",\"… 2020-04-01 1…
 4 MetABEL  "{\"any\":true,\"… "[{\"flavor\":\"r-… "{\"version\":\"0.2-0\",… 2020-04-01 1…
 5 quantab… "{\"any\":false,\… "[{\"flavor\":\"r-… "null"                    2020-04-01 1…
 6 ChIPtest "{\"any\":true,\"… "[{\"flavor\":\"r-… "{\"version\":\"1.0\",\"… 2020-04-01 1…
 7 TSF      "{\"any\":false,\… "[{\"flavor\":\"r-… "null"                    2020-04-01 1…
 8 apercu   "{\"any\":true,\"… "[{\"flavor\":\"r-… "{\"version\":\"0.2.4\",… 2020-04-01 1…
 9 SPRT     "{\"any\":true,\"… "[{\"flavor\":\"r-… "{\"version\":\"1.0\",\"… 2020-04-01 1…
10 W2CWM2C  "{\"any\":false,\… "[{\"flavor\":\"r-… "null"                    2020-04-01 1…
# … with 16,317 more rows
…
