…
```r
cchecks::cch_pkgs_history(x = "rhub")
```
```r
$error
NULL

$data
$data$package
[1] "rhub"

$data$history
# A tibble: 30 x 4
   date_updated  summary$any   $ok $note $warn $error $fail checks check_details
   <chr>         <lgl>       <int> <int> <int>  <int> <int> <list> <lgl>        
 1 2021-03-21T1 FALSE          13     0     0      0     0 <df[, NA           
 2 2021-03-20T1 FALSE          13     0     0      0     0 <df[, NA           
 3 2021-03-19T1 FALSE          13     0     0      0     0 <df[, NA           
 4 2021-03-18T1 FALSE          13     0     0      0     0 <df[, NA           
 5 2021-03-17T1 FALSE          12     0     0      0     0 <df[, NA           
 6 2021-03-16T1 FALSE          12     0     0      0     0 <df[, NA           
 7 2021-03-15T1 FALSE          11     0     0      0     0 <df[, NA           
 8 2021-03-14T1 FALSE          11     0     0      0     0 <df[, NA           
 9 2021-03-13T1 FALSE          11     0     0      0     0 <df[, NA           
10 2021-03-12T1 FALSE          13     0     0      0     0 <df[, NA           
#  with 20 more rows
…
