…
```r
cchecks::cch_pkgs_search(q = "memory")
```
```r
$error
NULL

$count
[1] 1368

$returned
[1] 30

$data
# A tibble: 30 x 5
   package    date_updated             summary$any   $ok $note $warn $error $fail checks            check_details$details $additional_issues
   <chr>      <chr>                    <lgl>       <int> <int> <int>  <int> <int> <list>            <list>                <list>            
 1 clusternor 2020-09-19T15:03:22.000Z TRUE            0     9     0      3     0 <df[,7] [12 × 7]> <df[,4] [5 × 4]>      <list [0]>        
 2 clusternor 2020-09-20T15:03:24.000Z TRUE            0     9     0      3     0 <df[,7] [12 × 7]> <df[,4] [5 × 4]>      <list [0]>        
 3 clusternor 2020-09-21T15:03:23.000Z TRUE            0     9     0      3     0 <df[,7] [12 × 7]> <df[,4] [5 × 4]>      <list [0]>        
 4 clusternor 2020-08-24T15:03:26.000Z TRUE            0    10     0      2     0 <df[,7] [12 × 7]> <df[,4] [4 × 4]>      <list [0]>        
 5 clusternor 2020-08-25T15:03:28.000Z TRUE            0    10     0      2     0 <df[,7] [12 × 7]> <df[,4] [4 × 4]>      <list [0]>        
 6 clusternor 2020-09-15T15:03:26.000Z TRUE            0     9     0      2     1 <df[,7] [12 × 7]> <df[,4] [5 × 4]>      <list [0]>        
 7 clusternor 2020-09-16T15:03:25.000Z TRUE            0     9     0      2     1 <df[,7] [12 × 7]> <df[,4] [5 × 4]>      <list [0]>        
 8 clusternor 2020-09-17T15:03:24.000Z TRUE            0     9     0      2     1 <df[,7] [12 × 7]> <df[,4] [5 × 4]>      <list [0]>        
 9 clusternor 2020-09-18T15:03:25.000Z TRUE            0     9     0      2     1 <df[,7] [12 × 7]> <df[,4] [5 × 4]>      <list [0]>        
10 allan      2020-08-23T15:03:28.000Z TRUE            0     9     0      3     0 <df[,7] [12 × 7]> <df[,4] [7 × 4]>      <list [0]>        
# … with 20 more rows
…
```r
cchecks::cch_pkgs_search(q = "memory", one_each = TRUE, fields = "package")
```
```r
$error
NULL

$count
[1] 63

$returned
[1] 30

$data
# A tibble: 30 x 5
   package        date_updated             summary checks check_details
   <chr>          <chr>                    <lgl>   <lgl>  <lgl>        
 1 allan          2020-08-23T15:03:28.000Z NA      NA     NA           
 2 aws            2020-08-23T15:03:28.000Z NA      NA     NA           
 3 BIS            2020-08-28T15:03:32.000Z NA      NA     NA           
 4 blockmodeling  2020-08-23T15:03:28.000Z NA      NA     NA           
 5 bridgesampling 2020-08-23T15:03:28.000Z NA      NA     NA           
 6 cairoDevice    2020-08-24T15:03:26.000Z NA      NA     NA           
 7 clusternor     2020-09-19T15:03:22.000Z NA      NA     NA           
 8 cooccurNet     2020-08-23T15:03:28.000Z NA      NA     NA           
 9 ctsemOMX       2020-08-25T15:03:28.000Z NA      NA     NA           
10 cusum          2020-08-23T15:03:28.000Z NA      NA     NA           
# … with 20 more rows
…
